…
setwd("~/got_subtitles/")

# vetor com o endereço dos arquivos
arquivos <- dir(path = getwd(), pattern = "json$", full.names = T)

# lendo os arquivos
got_subs_raw <- map(arquivos, ~ fromJSON(.x)) %>%
  unlist() %>%
  enframe()

got_subs_raw
```

    ## # A tibble: 44,890 x 2
    ##    name                             value
    ##    <chr>                            <chr>
    ##  1 Game Of Thrones S01E01 Winter I~ Easy, boy.
    ##  2 Game Of Thrones S01E01 Winter I~ Our orders were to track the wildlings.
    ##  3 Game Of Thrones S01E01 Winter I~ - Right. Give it here. - No!
    ##  4 Game Of Thrones S01E01 Winter I~ Put away your blade.
    ##  5 Game Of Thrones S01E01 Winter I~ - I take orders from your father, not ~
    ##  6 Game Of Thrones S01E01 Winter I~ I'm sorry, Bran.
    ##  7 Game Of Thrones S01E01 Winter I~ Lord Stark?
    ##  8 Game Of Thrones S01E01 Winter I~ There are five pups.
    ##  9 Game Of Thrones S01E01 Winter I~ One for each of the Stark children.
    ## 10 Game Of Thrones S01E01 Winter I~ The direwolf is the sigil of your hous~
    ## # ... with 44,880 more rows
…
  # separando a temporada do episódio
  separate(season_episode, c("season", "episode"), sep = "E") %>%

  # transformando o que é número para numeric
  mutate(
    season = as.numeric(season),
    episode = as.numeric(episode)
  ) %>%
  select(season, episode, name, value)

got_subs
```

    ## # A tibble: 44,890 x 4
    ##    season episode name          value
    ##     <dbl>   <dbl> <chr>         <chr>
    ##  1      1       1 Winter Is Co~ Easy, boy.
    ##  2      1       1 Winter Is Co~ Our orders were to track the wildlings.
    ##  3      1       1 Winter Is Co~ - Right. Give it here. - No!
    ##  4      1       1 Winter Is Co~ Put away your blade.
    ##  5      1       1 Winter Is Co~ - I take orders from your father, not you.~
    ##  6      1       1 Winter Is Co~ I'm sorry, Bran.
    ##  7      1       1 Winter Is Co~ Lord Stark?
    ##  8      1       1 Winter Is Co~ There are five pups.
    ##  9      1       1 Winter Is Co~ One for each of the Stark children.
    ## 10      1       1 Winter Is Co~ The direwolf is the sigil of your house.
    ## # ... with 44,880 more rows
…
Separar cada linha em palavras é muito fácil de ser feito com este
pacote, basta usar a função `unnest_tokens()`. Queremos também rastrear a que linha cada
palavra pertence, o que pode ser feito com o `dplyr::rownames_to_column()`

``` r
library(tidytext)

got_words <- got_subs %>%
  rownames_to_column() %>%
  unnest_tokens(word, value)

got_words
```

    ## # A tibble: 286,901 x 5
    ##    rowname season episode name             word
    ##    <chr>    <dbl>   <dbl> <chr>            <chr>
    ##  1 1            1       1 Winter Is Coming easy
    ##  2 1            1       1 Winter Is Coming boy
    ##  3 2            1       1 Winter Is Coming our
    ##  4 2            1       1 Winter Is Coming orders
    ##  5 2            1       1 Winter Is Coming were
    ##  6 2            1       1 Winter Is Coming to
    ##  7 2            1       1 Winter Is Coming track
    ##  8 2            1       1 Winter Is Coming the
    ##  9 2            1       1 Winter Is Coming wildlings
    ## 10 3            1       1 Winter Is Coming right
    ## # ... with 286,891 more rows

Vamos contar quais são as palavras mais comuns:

``` r
got_words %>%
  count(word, sort = T)
```

    ## # A tibble: 9,695 x 2
    ##    word      n
    ##    <chr> <int>
    ##  1 the   11856
    ##  2 you   10585
    ##  3 i     10267
    ##  4 to     7864
    ##  5 a      6006
    ##  6 and    5064
    ##  7 of     4430
    ##  8 your   3342
    ##  9 my     3234
    ## 10 it     2962
    ## # ... with 9,685 more rows
…
``` r
got_words <- got_words %>%
  anti_join(stop_words)
```

    ## Joining, by = "word"

``` r
got_words %>%
  count(word, sort = T)
```

    ## # A tibble: 9,079 x 2
    ##    word        n
    ##    <chr>   <int>
    ##  1 lord     1133
    ##  2 king      831
    ##  3 father    693
    ##  4 grace     517
    ##  5 time      513
    ##  6 lady      510
    ##  7 north     412
    ##  8 stark     409
    ##  9 people    394
    ## 10 brother   393
    ## # ... with 9,069 more rows
…
got_words <- got_words %>%
  filter(!(word %in% got_stop_words)) %>%
  add_count(word)

got_words %>%
  count(word, sort = T)
```

    ## # A tibble: 9,065 x 2
    ##    word       n
    ##    <chr>  <int>
    ##  1 time     513
    ##  2 north    412
    ##  3 stark    409
    ##  4 people   394
    ##  5 dead     375
    ##  6 kill     349
    ##  7 fight    313
    ##  8 told     295
    ##  9 die      284
    ## 10 life     278
    ## # ... with 9,055 more rows
…
``` r
library(widyr)

word_pairs <- got_words %>%
  add_count(word) %>%
  filter(n >= 50) %>%
  pairwise_cor(word,
    rowname,
    sort = T
  )

word_pairs
```

    ## # A tibble: 109,892 x 3
    ##    item1    item2    correlation
    ##    <chr>    <chr>          <dbl>
    ##  1 color    font           0.968
    ##  2 font     color          0.968
    ##  3 rock     casterly       0.908
    ##  4 casterly rock           0.908
    ##  5 watch    night's        0.674
    ##  6 night's  watch          0.674
    ##  7 white    walkers        0.639
    ##  8 walkers  white          0.639
    ##  9 jon      snow           0.540
    ## 10 snow     jon            0.540
    ## # ... with 109,882 more rows
…
A abordagem que vamos adotar é a mais simples, ela considera o
sentimento total de um texto como a soma do sentimento evocado por cada
palavra ou por cada pedaço do texto.

Mas como medir o sentimento expresso por uma palavra? Alguns datasets
nos ajudam a fazer isso. Por exemplo, este dataset classifica algumas mil palavras em uma escala que varia de -5 (muito
negativo) até 5 (muito positivo).

``` r
get_sentiments("afinn")
```

    ## # A tibble: 2,476 x 2
    ##    word       score
    ##    <chr>      <int>
    ##  1 abandon       -2
    ##  2 abandoned     -2
    ##  3 abandons      -2
    ##  4 abducted      -2
    ##  5 abduction     -2
    ##  6 abductions    -2
    ##  7 abhor         -3
    ##  8 abhorred      -3
    ##  9 abhorrent     -3
    ## 10 abhors        -3
    ## # ... with 2,466 more rows

Já esse classifica cada palavra binariamente, em ‘negativa’ ou ‘positiva’,
cobrindo uma porção maior de palavras.

``` r
get_sentiments("bing")
```

    ## # A tibble: 6,788 x 2
    ##    word        sentiment
    ##    <chr>       <chr>
    ##  1 2-faced     negative
    ##  2 2-faces     negative
    ##  3 a+          positive
    ##  4 abnormal    negative
    ##  5 abolish     negative
    ##  6 abominable  negative
    ##  7 abominably  negative
    ##  8 abominate   negative
    ##  9 abomination negative
    ## 10 abort       negative
    ## # ... with 6,778 more rows


Outra base possível de ser usada é essa, que cobre muito mais palavras e categorias, além de ter mais palavras positivas (em relação às negativas) que a base 'bing'.

``` r
get_sentiments("nrc")
```

    ## # A tibble: 13,901 x 2
    ##    word        sentiment
    ##    <chr>       <chr>
    ##  1 abacus      trust
    ##  2 abandon     fear
    ##  3 abandon     negative
    ##  4 abandon     sadness
    ##  5 abandoned   anger
    ##  6 abandoned   fear
    ##  7 abandoned   negative
    ##  8 abandoned   sadness
    ##  9 abandonment anger
    ## 10 abandonment fear
    ## # ... with 13,891 more rows
…
